\babel@toc {french}{}\relax 
\beamer@sectionintoc {1}{ Nouveau thème \dots Nouveau dossier}{2}{0}{1}
\beamer@sectionintoc {2}{Généralités}{4}{0}{2}
\beamer@sectionintoc {3}{micro:bit}{11}{0}{3}
\beamer@sectionintoc {4}{Principe d’utilisation}{14}{0}{4}
