\relax 
\providecommand\hyper@newdestlabel[2]{}
\providecommand\HyField@AuxAddToFields[1]{}
\providecommand\HyField@AuxAddToCoFields[2]{}
\providecommand\babel@aux[2]{}
\@nameuse{bbl@beforestart}
\pgfsyspdfmark {pgfid3}{222822}{484966}
\pgfsyspdfmark {pgfid2}{0}{16782118}
\babel@aux{french}{}
\pgfsyspdfmark {pgfid1}{4784128}{10069271}
\@writefile{nav}{\headcommand {\slideentry {0}{0}{1}{1/1}{}{0}}}
\@writefile{nav}{\headcommand {\beamer@framepages {1}{1}}}
\pgfsyspdfmark {pgfid5}{222822}{484966}
\pgfsyspdfmark {pgfid4}{0}{16782118}
\@writefile{toc}{\beamer@sectionintoc {1}{ Nouveau thème \dots  Nouveau dossier}{2}{0}{1}}
\@writefile{nav}{\headcommand {\beamer@sectionpages {1}{1}}}
\@writefile{nav}{\headcommand {\beamer@subsectionpages {1}{1}}}
\@writefile{nav}{\headcommand {\sectionentry {1}{Nouveau dossier}{2}{ Nouveau thème \dots  Nouveau dossier}{0}}}
\@writefile{nav}{\headcommand {\slideentry {1}{0}{1}{2/2}{}{0}}}
\@writefile{nav}{\headcommand {\beamer@framepages {2}{2}}}
\pgfsyspdfmark {pgfid8}{222822}{484966}
\pgfsyspdfmark {pgfid7}{0}{16782118}
\@writefile{nav}{\headcommand {\slideentry {1}{0}{2}{3/3}{}{0}}}
\@writefile{nav}{\headcommand {\beamer@framepages {3}{3}}}
\pgfsyspdfmark {pgfid10}{222822}{484966}
\pgfsyspdfmark {pgfid9}{0}{16782118}
\@writefile{toc}{\beamer@sectionintoc {2}{Généralités}{4}{0}{2}}
\@writefile{nav}{\headcommand {\beamer@sectionpages {2}{3}}}
\@writefile{nav}{\headcommand {\beamer@subsectionpages {2}{3}}}
\@writefile{nav}{\headcommand {\sectionentry {2}{Généralités}{4}{Généralités}{0}}}
\@writefile{nav}{\headcommand {\slideentry {2}{0}{1}{4/4}{}{0}}}
\@writefile{nav}{\headcommand {\beamer@framepages {4}{4}}}
\pgfsyspdfmark {pgfid12}{222822}{484966}
\pgfsyspdfmark {pgfid11}{0}{16782118}
\pgfsyspdfmark {pgfid14}{222822}{484966}
\pgfsyspdfmark {pgfid13}{0}{16782118}
\pgfsyspdfmark {pgfid16}{222822}{484966}
\pgfsyspdfmark {pgfid15}{0}{16782118}
\pgfsyspdfmark {pgfid18}{222822}{484966}
\pgfsyspdfmark {pgfid17}{0}{16782118}
\pgfsyspdfmark {pgfid20}{222822}{484966}
\pgfsyspdfmark {pgfid19}{0}{16782118}
\pgfsyspdfmark {pgfid22}{222822}{484966}
\pgfsyspdfmark {pgfid21}{0}{16782118}
\@writefile{nav}{\headcommand {\slideentry {2}{0}{2}{5/10}{}{0}}}
\@writefile{nav}{\headcommand {\beamer@framepages {5}{10}}}
\pgfsyspdfmark {pgfid24}{222822}{484966}
\pgfsyspdfmark {pgfid23}{0}{16782118}
\@writefile{toc}{\beamer@sectionintoc {3}{micro:bit}{11}{0}{3}}
\@writefile{nav}{\headcommand {\beamer@sectionpages {4}{10}}}
\@writefile{nav}{\headcommand {\beamer@subsectionpages {4}{10}}}
\@writefile{nav}{\headcommand {\sectionentry {3}{micro:bit}{11}{micro:bit}{0}}}
\@writefile{nav}{\headcommand {\slideentry {3}{0}{1}{11/11}{}{0}}}
\@writefile{nav}{\headcommand {\beamer@framepages {11}{11}}}
\pgfsyspdfmark {pgfid26}{222822}{484966}
\pgfsyspdfmark {pgfid25}{0}{16782118}
\@writefile{nav}{\headcommand {\slideentry {3}{0}{2}{12/12}{}{0}}}
\@writefile{nav}{\headcommand {\beamer@framepages {12}{12}}}
\pgfsyspdfmark {pgfid28}{222822}{484966}
\pgfsyspdfmark {pgfid27}{0}{16782118}
\@writefile{nav}{\headcommand {\slideentry {3}{0}{3}{13/13}{}{0}}}
\@writefile{nav}{\headcommand {\beamer@framepages {13}{13}}}
\pgfsyspdfmark {pgfid30}{222822}{484966}
\pgfsyspdfmark {pgfid29}{0}{16782118}
\@writefile{toc}{\beamer@sectionintoc {4}{Principe d’utilisation}{14}{0}{4}}
\@writefile{nav}{\headcommand {\beamer@sectionpages {11}{13}}}
\@writefile{nav}{\headcommand {\beamer@subsectionpages {11}{13}}}
\@writefile{nav}{\headcommand {\sectionentry {4}{Principe d’utilisation}{14}{Principe d’utilisation}{0}}}
\@writefile{nav}{\headcommand {\slideentry {4}{0}{1}{14/14}{}{0}}}
\@writefile{nav}{\headcommand {\beamer@framepages {14}{14}}}
\pgfsyspdfmark {pgfid32}{222822}{484966}
\pgfsyspdfmark {pgfid31}{0}{16782118}
\pgfsyspdfmark {pgfid34}{222822}{484966}
\pgfsyspdfmark {pgfid33}{0}{16782118}
\pgfsyspdfmark {pgfid36}{222822}{484966}
\pgfsyspdfmark {pgfid35}{0}{16782118}
\@writefile{nav}{\headcommand {\slideentry {4}{0}{2}{15/17}{}{0}}}
\@writefile{nav}{\headcommand {\beamer@framepages {15}{17}}}
\pgfsyspdfmark {pgfid38}{222822}{484966}
\pgfsyspdfmark {pgfid37}{0}{16782118}
\pgfsyspdfmark {pgfid40}{222822}{484966}
\pgfsyspdfmark {pgfid39}{0}{16782118}
\pgfsyspdfmark {pgfid42}{222822}{484966}
\pgfsyspdfmark {pgfid41}{0}{16782118}
\pgfsyspdfmark {pgfid44}{222822}{484966}
\pgfsyspdfmark {pgfid43}{0}{16782118}
\@writefile{nav}{\headcommand {\slideentry {4}{0}{3}{19/21}{}{0}}}
\@writefile{nav}{\headcommand {\beamer@framepages {19}{21}}}
\pgfsyspdfmark {pgfid48}{222822}{484966}
\pgfsyspdfmark {pgfid47}{0}{16782118}
\@writefile{nav}{\headcommand {\slideentry {4}{0}{4}{22/22}{}{0}}}
\@writefile{nav}{\headcommand {\beamer@framepages {22}{22}}}
\@writefile{nav}{\headcommand {\beamer@partpages {1}{22}}}
\@writefile{nav}{\headcommand {\beamer@subsectionpages {14}{22}}}
\@writefile{nav}{\headcommand {\beamer@sectionpages {14}{22}}}
\@writefile{nav}{\headcommand {\beamer@documentpages {22}}}
\@writefile{nav}{\headcommand {\gdef \inserttotalframenumber {12}}}
\gdef\minted@oldcachelist{,
  default.pygstyle,
  2FDADAAF7CE87BC4EFD972DB7143DD2AFF48388A4E52FDF811EA01FB19E43284.pygtex}
\gdef \@abspage@last{22}
