\relax 
\providecommand\babel@aux[2]{}
\@nameuse{bbl@beforestart}
\providecommand\hyper@newdestlabel[2]{}
\providecommand\HyperFirstAtBeginDocument{\AtBeginDocument}
\HyperFirstAtBeginDocument{\ifx\hyper@anchor\@undefined
\global\let\oldnewlabel\newlabel
\gdef\newlabel#1#2{\newlabelxx{#1}#2}
\gdef\newlabelxx#1#2#3#4#5#6{\oldnewlabel{#1}{{#2}{#3}}}
\AtEndDocument{\ifx\hyper@anchor\@undefined
\let\newlabel\oldnewlabel
\fi}
\fi}
\global\let\hyper@last\relax 
\gdef\HyperFirstAtBeginDocument#1{#1}
\providecommand\HyField@AuxAddToFields[1]{}
\providecommand\HyField@AuxAddToCoFields[2]{}
\providecommand \oddpage@label [2]{}
\ifx\qr@savematrix\@undefined\def\qr@savematrix{\begingroup\let\do\@makeother\dospecials\catcode`\{=1\catcode`\}=2\relax \qr@savematrix@int}\def\qr@savematrix@int#1#2#3#4{\endgroup}\fi
\babel@aux{french}{}
\@writefile{toc}{\contentsline {section}{informations à disposition}{1}{section*.1}\protected@file@percent }
\newlabel{infos}{{1}{1}{\infos }{numDoc.1}{}}
\@writefile{toc}{\contentsline {section}{travail à effectuer}{1}{section*.2}\protected@file@percent }
\@writefile{toc}{\contentsline {subsection}{Partie 1 : communication rapide et discrète}{1}{section*.3}\protected@file@percent }
\@writefile{toc}{\contentsline {subsection}{Partie 2 : communication par texte}{2}{section*.4}\protected@file@percent }
\newlabel{mu}{{2}{2}{Partie 2 : communication par texte}{numDoc.2}{}}
\newlabel{instructions}{{3}{2}{Partie 2 : communication par texte}{numDoc.3}{}}
\gdef\exam@lastpage{2}
\gdef\exam@lastcoverpage{0}
\gdef\exam@totalpages{2}
\gdef\exam@numpoints{0}
\gdef\exam@numbonuspoints{0}
\gdef\exam@numquestions{0}
\gdef\exam@numparts{0}
\gdef\exam@numsubparts{0}
\gdef\exam@numsubsubparts{0}
\gdef\lastpage@withpoints{0}
\gdef\lastpage@withbonuspoints{0}
\gdef\minted@oldcachelist{,
  default.pygstyle,
  F763EFF1A9824760D0A88233CE45AFF5B305F858CB10D975574490E2D5704A7E.pygtex,
  084ECE3E6CB1C0D3A61CA4E8E12035C9B305F858CB10D975574490E2D5704A7E.pygtex,
  74CEEF777B07EC8F44D2384257CE8F1EB305F858CB10D975574490E2D5704A7E.pygtex,
  92F450787B22DBCCF9F5664077B96A7FB305F858CB10D975574490E2D5704A7E.pygtex,
  08E9DE24AB150D083240557CEC091D53B305F858CB10D975574490E2D5704A7E.pygtex,
  753474E1388FF8F32F2FB3B8B440AE68B305F858CB10D975574490E2D5704A7E.pygtex,
  EC9187A89C2F150E910B6DB5F37521B9B305F858CB10D975574490E2D5704A7E.pygtex}
\gdef \@abspage@last{2}
