\relax 
\providecommand \chemnum@cmpd [8]{}
\providecommand \chemnum@subcmpd [4]{}
\providecommand \chemnum@check {}
\providecommand\babel@aux[2]{}
\@nameuse{bbl@beforestart}
\providecommand\hyper@newdestlabel[2]{}
\providecommand\HyField@AuxAddToFields[1]{}
\providecommand\HyField@AuxAddToCoFields[2]{}
\providecommand \oddpage@label [2]{}
\ifx\qr@savematrix\@undefined\def\qr@savematrix{\begingroup\let\do\@makeother\dospecials\catcode`\{=1\catcode`\}=2\relax \qr@savematrix@int}\def\qr@savematrix@int#1#2#3#4{\endgroup}\fi
\babel@aux{french}{}
\@writefile{toc}{\contentsline {section}{informations à disposition}{1}{section*.1}\protected@file@percent }
\newlabel{regles}{{1}{1}{\infos }{numDoc.1}{}}
\newlabel{regles@cref}{{[numDoc][1][]1}{[1][1][]1}{}{}{}}
\newlabel{objets}{{2}{1}{\infos }{numDoc.2}{}}
\newlabel{objets@cref}{{[numDoc][2][]2}{[1][1][]1}{}{}{}}
\@writefile{toc}{\contentsline {section}{travail à effectuer}{1}{section*.2}\protected@file@percent }
\gdef\exam@lastpage{1}
\gdef\exam@lastcoverpage{0}
\gdef\exam@totalpages{1}
\gdef\exam@numpoints{0}
\gdef\exam@numbonuspoints{0}
\gdef\exam@numquestions{0}
\gdef\exam@numparts{0}
\gdef\exam@numsubparts{0}
\gdef\exam@numsubsubparts{0}
\gdef\lastpage@withpoints{0}
\gdef\lastpage@withbonuspoints{0}
\chemnum@check 
\gdef\minted@oldcachelist{,
  default.pygstyle,
  F5F1B29E02387E621122439930D613BAE94F4BC2E5881E5E668EE5AD01576A1D.pygtex}
\gdef \@abspage@last{1}
