\relax 
\providecommand\hyper@newdestlabel[2]{}
\providecommand\HyperFirstAtBeginDocument{\AtBeginDocument}
\HyperFirstAtBeginDocument{\ifx\hyper@anchor\@undefined
\global\let\oldnewlabel\newlabel
\gdef\newlabel#1#2{\newlabelxx{#1}#2}
\gdef\newlabelxx#1#2#3#4#5#6{\oldnewlabel{#1}{{#2}{#3}}}
\AtEndDocument{\ifx\hyper@anchor\@undefined
\let\newlabel\oldnewlabel
\fi}
\fi}
\global\let\hyper@last\relax 
\gdef\HyperFirstAtBeginDocument#1{#1}
\providecommand\HyField@AuxAddToFields[1]{}
\providecommand\HyField@AuxAddToCoFields[2]{}
\providecommand\babel@aux[2]{}
\@nameuse{bbl@beforestart}
\pgfsyspdfmark {pgfid3}{222822}{484966}
\pgfsyspdfmark {pgfid2}{0}{16782118}
\babel@aux{english}{}
\pgfsyspdfmark {pgfid1}{4784128}{10069271}
\@writefile{nav}{\headcommand {\slideentry {0}{0}{1}{1/1}{}{0}}}
\@writefile{nav}{\headcommand {\beamer@framepages {1}{1}}}
\pgfsyspdfmark {pgfid5}{222822}{484966}
\pgfsyspdfmark {pgfid4}{0}{16782118}
\pgfsyspdfmark {pgfid7}{222822}{484966}
\pgfsyspdfmark {pgfid6}{0}{16782118}
\pgfsyspdfmark {pgfid9}{222822}{484966}
\pgfsyspdfmark {pgfid8}{0}{16782118}
\pgfsyspdfmark {pgfid11}{222822}{484966}
\pgfsyspdfmark {pgfid10}{0}{16782118}
\pgfsyspdfmark {pgfid13}{222822}{484966}
\pgfsyspdfmark {pgfid12}{0}{16782118}
\pgfsyspdfmark {pgfid15}{222822}{484966}
\pgfsyspdfmark {pgfid14}{0}{16782118}
\pgfsyspdfmark {pgfid17}{222822}{484966}
\pgfsyspdfmark {pgfid16}{0}{16782118}
\@writefile{nav}{\headcommand {\slideentry {0}{0}{2}{2/8}{}{0}}}
\@writefile{nav}{\headcommand {\beamer@framepages {2}{8}}}
\pgfsyspdfmark {pgfid21}{222822}{484966}
\pgfsyspdfmark {pgfid20}{0}{16782118}
\@writefile{nav}{\headcommand {\slideentry {0}{0}{3}{9/9}{}{0}}}
\@writefile{nav}{\headcommand {\beamer@framepages {9}{9}}}
\pgfsyspdfmark {pgfid23}{222822}{484966}
\pgfsyspdfmark {pgfid22}{0}{16782118}
\pgfsyspdfmark {pgfid25}{222822}{484966}
\pgfsyspdfmark {pgfid24}{0}{16782118}
\@writefile{nav}{\headcommand {\slideentry {0}{0}{4}{10/11}{}{0}}}
\@writefile{nav}{\headcommand {\beamer@framepages {10}{11}}}
\pgfsyspdfmark {pgfid27}{222822}{484966}
\pgfsyspdfmark {pgfid26}{0}{16782118}
\pgfsyspdfmark {pgfid29}{222822}{484966}
\pgfsyspdfmark {pgfid28}{0}{16782118}
\@writefile{nav}{\headcommand {\slideentry {0}{0}{5}{12/13}{}{0}}}
\@writefile{nav}{\headcommand {\beamer@framepages {12}{13}}}
\pgfsyspdfmark {pgfid31}{222822}{484966}
\pgfsyspdfmark {pgfid30}{0}{16782118}
\pgfsyspdfmark {pgfid33}{222822}{484966}
\pgfsyspdfmark {pgfid32}{0}{16782118}
\pgfsyspdfmark {pgfid35}{222822}{484966}
\pgfsyspdfmark {pgfid34}{0}{16782118}
\@writefile{nav}{\headcommand {\slideentry {0}{0}{6}{14/16}{}{0}}}
\@writefile{nav}{\headcommand {\beamer@framepages {14}{16}}}
\pgfsyspdfmark {pgfid37}{222822}{484966}
\pgfsyspdfmark {pgfid36}{0}{16782118}
\@writefile{toc}{\beamer@sectionintoc {1}{Variables et affectation}{17}{0}{1}}
\@writefile{nav}{\headcommand {\beamer@sectionpages {1}{16}}}
\@writefile{nav}{\headcommand {\beamer@subsectionpages {1}{16}}}
\@writefile{nav}{\headcommand {\sectionentry {1}{Variables}{17}{Variables et affectation}{0}}}
\@writefile{nav}{\headcommand {\slideentry {1}{0}{1}{17/17}{}{0}}}
\@writefile{nav}{\headcommand {\beamer@framepages {17}{17}}}
\pgfsyspdfmark {pgfid39}{222822}{484966}
\pgfsyspdfmark {pgfid38}{0}{16782118}
\pgfsyspdfmark {pgfid41}{222822}{484966}
\pgfsyspdfmark {pgfid40}{0}{16782118}
\pgfsyspdfmark {pgfid43}{222822}{484966}
\pgfsyspdfmark {pgfid42}{0}{16782118}
\pgfsyspdfmark {pgfid45}{222822}{484966}
\pgfsyspdfmark {pgfid44}{0}{16782118}
\pgfsyspdfmark {pgfid47}{222822}{484966}
\pgfsyspdfmark {pgfid46}{0}{16782118}
\@writefile{nav}{\headcommand {\slideentry {1}{0}{2}{18/22}{}{0}}}
\@writefile{nav}{\headcommand {\beamer@framepages {18}{22}}}
\pgfsyspdfmark {pgfid50}{222822}{484966}
\pgfsyspdfmark {pgfid49}{0}{16782118}
\pgfsyspdfmark {pgfid53}{222822}{484966}
\pgfsyspdfmark {pgfid52}{0}{16782118}
\pgfsyspdfmark {pgfid56}{222822}{484966}
\pgfsyspdfmark {pgfid55}{0}{16782118}
\pgfsyspdfmark {pgfid59}{222822}{484966}
\pgfsyspdfmark {pgfid58}{0}{16782118}
\@writefile{nav}{\headcommand {\slideentry {1}{0}{3}{23/26}{}{0}}}
\@writefile{nav}{\headcommand {\beamer@framepages {23}{26}}}
\pgfsyspdfmark {pgfid61}{222822}{484966}
\pgfsyspdfmark {pgfid60}{0}{16782118}
\@writefile{toc}{\beamer@sectionintoc {2}{Les fonctions}{27}{0}{2}}
\@writefile{nav}{\headcommand {\beamer@sectionpages {17}{26}}}
\@writefile{nav}{\headcommand {\beamer@subsectionpages {17}{26}}}
\@writefile{nav}{\headcommand {\sectionentry {2}{Fonctions}{27}{Les fonctions}{0}}}
\@writefile{nav}{\headcommand {\slideentry {2}{0}{1}{27/27}{}{0}}}
\@writefile{nav}{\headcommand {\beamer@framepages {27}{27}}}
\pgfsyspdfmark {pgfid68}{222822}{484966}
\pgfsyspdfmark {pgfid67}{0}{16782118}
\pgfsyspdfmark {pgfid75}{222822}{484966}
\pgfsyspdfmark {pgfid74}{0}{16782118}
\@writefile{nav}{\headcommand {\slideentry {2}{0}{2}{28/29}{}{0}}}
\@writefile{nav}{\headcommand {\beamer@framepages {28}{29}}}
\pgfsyspdfmark {pgfid79}{222822}{484966}
\pgfsyspdfmark {pgfid78}{0}{16782118}
\pgfsyspdfmark {pgfid83}{222822}{484966}
\pgfsyspdfmark {pgfid82}{0}{16782118}
\@writefile{nav}{\headcommand {\slideentry {2}{0}{3}{30/31}{}{0}}}
\@writefile{nav}{\headcommand {\beamer@framepages {30}{31}}}
\pgfsyspdfmark {pgfid88}{222822}{484966}
\pgfsyspdfmark {pgfid87}{0}{16782118}
\pgfsyspdfmark {pgfid93}{222822}{484966}
\pgfsyspdfmark {pgfid92}{0}{16782118}
\@writefile{nav}{\headcommand {\slideentry {2}{0}{4}{32/33}{}{0}}}
\@writefile{nav}{\headcommand {\beamer@framepages {32}{33}}}
\pgfsyspdfmark {pgfid95}{222822}{484966}
\pgfsyspdfmark {pgfid94}{0}{16782118}
\@writefile{toc}{\beamer@sectionintoc {3}{Structures conditionnelles}{34}{0}{3}}
\@writefile{nav}{\headcommand {\beamer@sectionpages {27}{33}}}
\@writefile{nav}{\headcommand {\beamer@subsectionpages {27}{33}}}
\@writefile{nav}{\headcommand {\sectionentry {3}{Structures conditionnelles}{34}{Structures conditionnelles}{0}}}
\@writefile{nav}{\headcommand {\slideentry {3}{0}{1}{34/34}{}{0}}}
\@writefile{nav}{\headcommand {\beamer@framepages {34}{34}}}
\pgfsyspdfmark {pgfid97}{222822}{484966}
\pgfsyspdfmark {pgfid96}{0}{16782118}
\@writefile{toc}{\beamer@subsectionintoc {3}{1}{if}{35}{0}{3}}
\@writefile{nav}{\headcommand {\beamer@subsectionpages {34}{34}}}
\@writefile{nav}{\headcommand {\beamer@subsectionentry {0}{3}{1}{35}{if}}}
\@writefile{nav}{\headcommand {\slideentry {3}{1}{1}{35/35}{if}{0}}}
\@writefile{nav}{\headcommand {\beamer@framepages {35}{35}}}
\pgfsyspdfmark {pgfid100}{222822}{484966}
\pgfsyspdfmark {pgfid99}{0}{16782118}
\pgfsyspdfmark {pgfid103}{222822}{484966}
\pgfsyspdfmark {pgfid102}{0}{16782118}
\pgfsyspdfmark {pgfid106}{222822}{484966}
\pgfsyspdfmark {pgfid105}{0}{16782118}
\pgfsyspdfmark {pgfid109}{222822}{484966}
\pgfsyspdfmark {pgfid108}{0}{16782118}
\pgfsyspdfmark {pgfid112}{222822}{484966}
\pgfsyspdfmark {pgfid111}{0}{16782118}
\pgfsyspdfmark {pgfid115}{222822}{484966}
\pgfsyspdfmark {pgfid114}{0}{16782118}
\@writefile{nav}{\headcommand {\slideentry {3}{1}{2}{36/41}{if}{0}}}
\@writefile{nav}{\headcommand {\beamer@framepages {36}{41}}}
\pgfsyspdfmark {pgfid119}{222822}{484966}
\pgfsyspdfmark {pgfid118}{0}{16782118}
\pgfsyspdfmark {pgfid123}{222822}{484966}
\pgfsyspdfmark {pgfid122}{0}{16782118}
\pgfsyspdfmark {pgfid127}{222822}{484966}
\pgfsyspdfmark {pgfid126}{0}{16782118}
\@writefile{nav}{\headcommand {\slideentry {3}{1}{3}{42/44}{if}{0}}}
\@writefile{nav}{\headcommand {\beamer@framepages {42}{44}}}
\pgfsyspdfmark {pgfid129}{222822}{484966}
\pgfsyspdfmark {pgfid128}{0}{16782118}
\@writefile{toc}{\beamer@subsectionintoc {3}{2}{if \dots  else}{45}{0}{3}}
\@writefile{nav}{\headcommand {\beamer@subsectionpages {35}{44}}}
\@writefile{nav}{\headcommand {\beamer@subsectionentry {0}{3}{2}{45}{if \dots  else}}}
\@writefile{nav}{\headcommand {\slideentry {3}{2}{1}{45/45}{if \dots  else}{0}}}
\@writefile{nav}{\headcommand {\beamer@framepages {45}{45}}}
\pgfsyspdfmark {pgfid132}{222822}{484966}
\pgfsyspdfmark {pgfid131}{0}{16782118}
\pgfsyspdfmark {pgfid135}{222822}{484966}
\pgfsyspdfmark {pgfid134}{0}{16782118}
\pgfsyspdfmark {pgfid138}{222822}{484966}
\pgfsyspdfmark {pgfid137}{0}{16782118}
\pgfsyspdfmark {pgfid141}{222822}{484966}
\pgfsyspdfmark {pgfid140}{0}{16782118}
\@writefile{nav}{\headcommand {\slideentry {3}{2}{2}{46/49}{if \dots  else}{0}}}
\@writefile{nav}{\headcommand {\beamer@framepages {46}{49}}}
\pgfsyspdfmark {pgfid145}{222822}{484966}
\pgfsyspdfmark {pgfid144}{0}{16782118}
\@writefile{nav}{\headcommand {\slideentry {3}{2}{3}{50/50}{if \dots  else}{0}}}
\@writefile{nav}{\headcommand {\beamer@framepages {50}{50}}}
\pgfsyspdfmark {pgfid147}{222822}{484966}
\pgfsyspdfmark {pgfid146}{0}{16782118}
\@writefile{toc}{\beamer@subsectionintoc {3}{3}{if \dots  elif \dots  else}{51}{0}{3}}
\@writefile{nav}{\headcommand {\beamer@subsectionpages {45}{50}}}
\@writefile{nav}{\headcommand {\beamer@subsectionentry {0}{3}{3}{51}{if \dots  elif \dots  else}}}
\@writefile{nav}{\headcommand {\slideentry {3}{3}{1}{51/51}{if \dots  elif \dots  else}{0}}}
\@writefile{nav}{\headcommand {\beamer@framepages {51}{51}}}
\pgfsyspdfmark {pgfid150}{222822}{484966}
\pgfsyspdfmark {pgfid149}{0}{16782118}
\pgfsyspdfmark {pgfid153}{222822}{484966}
\pgfsyspdfmark {pgfid152}{0}{16782118}
\pgfsyspdfmark {pgfid156}{222822}{484966}
\pgfsyspdfmark {pgfid155}{0}{16782118}
\pgfsyspdfmark {pgfid159}{222822}{484966}
\pgfsyspdfmark {pgfid158}{0}{16782118}
\pgfsyspdfmark {pgfid162}{222822}{484966}
\pgfsyspdfmark {pgfid161}{0}{16782118}
\@writefile{nav}{\headcommand {\slideentry {3}{3}{2}{52/56}{if \dots  elif \dots  else}{0}}}
\@writefile{nav}{\headcommand {\beamer@framepages {52}{56}}}
\pgfsyspdfmark {pgfid165}{222822}{484966}
\pgfsyspdfmark {pgfid164}{0}{16782118}
\pgfsyspdfmark {pgfid168}{222822}{484966}
\pgfsyspdfmark {pgfid167}{0}{16782118}
\pgfsyspdfmark {pgfid171}{222822}{484966}
\pgfsyspdfmark {pgfid170}{0}{16782118}
\pgfsyspdfmark {pgfid174}{222822}{484966}
\pgfsyspdfmark {pgfid173}{0}{16782118}
\pgfsyspdfmark {pgfid177}{222822}{484966}
\pgfsyspdfmark {pgfid176}{0}{16782118}
\@writefile{nav}{\headcommand {\slideentry {3}{3}{3}{57/61}{if \dots  elif \dots  else}{0}}}
\@writefile{nav}{\headcommand {\beamer@framepages {57}{61}}}
\pgfsyspdfmark {pgfid179}{222822}{484966}
\pgfsyspdfmark {pgfid178}{0}{16782118}
\@writefile{toc}{\beamer@sectionintoc {4}{Les boucles bornées}{62}{0}{4}}
\@writefile{nav}{\headcommand {\beamer@sectionpages {34}{61}}}
\@writefile{nav}{\headcommand {\beamer@subsectionpages {51}{61}}}
\@writefile{nav}{\headcommand {\sectionentry {4}{Boucles bornées}{62}{Les boucles bornées}{0}}}
\@writefile{nav}{\headcommand {\slideentry {4}{0}{1}{62/62}{}{0}}}
\@writefile{nav}{\headcommand {\beamer@framepages {62}{62}}}
\pgfsyspdfmark {pgfid182}{222822}{484966}
\pgfsyspdfmark {pgfid181}{0}{16782118}
\pgfsyspdfmark {pgfid185}{222822}{484966}
\pgfsyspdfmark {pgfid184}{0}{16782118}
\pgfsyspdfmark {pgfid188}{222822}{484966}
\pgfsyspdfmark {pgfid187}{0}{16782118}
\pgfsyspdfmark {pgfid191}{222822}{484966}
\pgfsyspdfmark {pgfid190}{0}{16782118}
\pgfsyspdfmark {pgfid194}{222822}{484966}
\pgfsyspdfmark {pgfid193}{0}{16782118}
\@writefile{nav}{\headcommand {\slideentry {4}{0}{2}{63/67}{}{0}}}
\@writefile{nav}{\headcommand {\beamer@framepages {63}{67}}}
\pgfsyspdfmark {pgfid198}{222822}{484966}
\pgfsyspdfmark {pgfid197}{0}{16782118}
\pgfsyspdfmark {pgfid202}{222822}{484966}
\pgfsyspdfmark {pgfid201}{0}{16782118}
\pgfsyspdfmark {pgfid206}{222822}{484966}
\pgfsyspdfmark {pgfid205}{0}{16782118}
\pgfsyspdfmark {pgfid210}{222822}{484966}
\pgfsyspdfmark {pgfid209}{0}{16782118}
\@writefile{nav}{\headcommand {\slideentry {4}{0}{3}{68/71}{}{0}}}
\@writefile{nav}{\headcommand {\beamer@framepages {68}{71}}}
\pgfsyspdfmark {pgfid212}{222822}{484966}
\pgfsyspdfmark {pgfid211}{0}{16782118}
\@writefile{toc}{\beamer@sectionintoc {5}{Les boucles non bornées}{72}{0}{5}}
\@writefile{nav}{\headcommand {\beamer@sectionpages {62}{71}}}
\@writefile{nav}{\headcommand {\beamer@subsectionpages {62}{71}}}
\@writefile{nav}{\headcommand {\sectionentry {5}{Boucles non bornées}{72}{Les boucles non bornées}{0}}}
\@writefile{nav}{\headcommand {\slideentry {5}{0}{1}{72/72}{}{0}}}
\@writefile{nav}{\headcommand {\beamer@framepages {72}{72}}}
\pgfsyspdfmark {pgfid215}{222822}{484966}
\pgfsyspdfmark {pgfid214}{0}{16782118}
\pgfsyspdfmark {pgfid218}{222822}{484966}
\pgfsyspdfmark {pgfid217}{0}{16782118}
\pgfsyspdfmark {pgfid221}{222822}{484966}
\pgfsyspdfmark {pgfid220}{0}{16782118}
\pgfsyspdfmark {pgfid224}{222822}{484966}
\pgfsyspdfmark {pgfid223}{0}{16782118}
\@writefile{nav}{\headcommand {\slideentry {5}{0}{2}{73/76}{}{0}}}
\@writefile{nav}{\headcommand {\beamer@framepages {73}{76}}}
\pgfsyspdfmark {pgfid228}{222822}{484966}
\pgfsyspdfmark {pgfid227}{0}{16782118}
\pgfsyspdfmark {pgfid232}{222822}{484966}
\pgfsyspdfmark {pgfid231}{0}{16782118}
\pgfsyspdfmark {pgfid236}{222822}{484966}
\pgfsyspdfmark {pgfid235}{0}{16782118}
\pgfsyspdfmark {pgfid240}{222822}{484966}
\pgfsyspdfmark {pgfid239}{0}{16782118}
\@writefile{nav}{\headcommand {\slideentry {5}{0}{3}{77/80}{}{0}}}
\@writefile{nav}{\headcommand {\beamer@framepages {77}{80}}}
\@writefile{nav}{\headcommand {\beamer@partpages {1}{80}}}
\@writefile{nav}{\headcommand {\beamer@subsectionpages {72}{80}}}
\@writefile{nav}{\headcommand {\beamer@sectionpages {72}{80}}}
\@writefile{nav}{\headcommand {\beamer@documentpages {80}}}
\@writefile{nav}{\headcommand {\gdef \inserttotalframenumber {29}}}
\gdef\minted@oldcachelist{,
  default.pygstyle,
  2A2A52A49E4D7CF40B042D1293BDEE4B1A054DAD90DBDF5EE062315F0AF7B5FD.pygtex,
  614DD0E977BECB4C6F7FA99E64549B125D09A0B1FD1BC563A75B69383BDB5D8E.pygtex,
  AE5D6832F27B7C6221254A56899C83FE1A054DAD90DBDF5EE062315F0AF7B5FD.pygtex,
  7FBB326C22DD566D6BFFB6A0D83E06D41A054DAD90DBDF5EE062315F0AF7B5FD.pygtex,
  614DD0E977BECB4C6F7FA99E64549B125D09A0B1FD1BC563A75B69383BDB5D8E.pygtex,
  AE5D6832F27B7C6221254A56899C83FE1A054DAD90DBDF5EE062315F0AF7B5FD.pygtex,
  7FBB326C22DD566D6BFFB6A0D83E06D41A054DAD90DBDF5EE062315F0AF7B5FD.pygtex,
  72CF3EBD71D9428386DED643DB2E09201A054DAD90DBDF5EE062315F0AF7B5FD.pygtex,
  72CF3EBD71D9428386DED643DB2E09201A054DAD90DBDF5EE062315F0AF7B5FD.pygtex,
  64672A10DE469FBE6988486F9582D37C5D09A0B1FD1BC563A75B69383BDB5D8E.pygtex,
  90B6EDD5009279393A08FAA9979944021A054DAD90DBDF5EE062315F0AF7B5FD.pygtex,
  64672A10DE469FBE6988486F9582D37C5D09A0B1FD1BC563A75B69383BDB5D8E.pygtex,
  90B6EDD5009279393A08FAA9979944021A054DAD90DBDF5EE062315F0AF7B5FD.pygtex,
  91AEE16D47CA8E26B0D25FC4258D449C1A054DAD90DBDF5EE062315F0AF7B5FD.pygtex,
  91AEE16D47CA8E26B0D25FC4258D449C1A054DAD90DBDF5EE062315F0AF7B5FD.pygtex,
  91AEE16D47CA8E26B0D25FC4258D449C1A054DAD90DBDF5EE062315F0AF7B5FD.pygtex,
  23B2EF9B423F6D526B023642A842662B1A054DAD90DBDF5EE062315F0AF7B5FD.pygtex,
  8820257FD748C8E8AB44ECF557FFCE8D5D09A0B1FD1BC563A75B69383BDB5D8E.pygtex,
  8820257FD748C8E8AB44ECF557FFCE8D5D09A0B1FD1BC563A75B69383BDB5D8E.pygtex,
  7E7BC2EDEA94DDBAE209E700C00177275D09A0B1FD1BC563A75B69383BDB5D8E.pygtex,
  8820257FD748C8E8AB44ECF557FFCE8D5D09A0B1FD1BC563A75B69383BDB5D8E.pygtex,
  8820257FD748C8E8AB44ECF557FFCE8D5D09A0B1FD1BC563A75B69383BDB5D8E.pygtex,
  7E7BC2EDEA94DDBAE209E700C00177275D09A0B1FD1BC563A75B69383BDB5D8E.pygtex,
  8820257FD748C8E8AB44ECF557FFCE8D5D09A0B1FD1BC563A75B69383BDB5D8E.pygtex,
  8820257FD748C8E8AB44ECF557FFCE8D5D09A0B1FD1BC563A75B69383BDB5D8E.pygtex,
  7E7BC2EDEA94DDBAE209E700C00177275D09A0B1FD1BC563A75B69383BDB5D8E.pygtex,
  8820257FD748C8E8AB44ECF557FFCE8D5D09A0B1FD1BC563A75B69383BDB5D8E.pygtex,
  8820257FD748C8E8AB44ECF557FFCE8D5D09A0B1FD1BC563A75B69383BDB5D8E.pygtex,
  7E7BC2EDEA94DDBAE209E700C00177275D09A0B1FD1BC563A75B69383BDB5D8E.pygtex,
  8820257FD748C8E8AB44ECF557FFCE8D5D09A0B1FD1BC563A75B69383BDB5D8E.pygtex,
  8820257FD748C8E8AB44ECF557FFCE8D5D09A0B1FD1BC563A75B69383BDB5D8E.pygtex,
  7E7BC2EDEA94DDBAE209E700C00177275D09A0B1FD1BC563A75B69383BDB5D8E.pygtex,
  D8EA27E74FBE2E4C5BFBAC4810B36D341A054DAD90DBDF5EE062315F0AF7B5FD.pygtex,
  D8EA27E74FBE2E4C5BFBAC4810B36D341A054DAD90DBDF5EE062315F0AF7B5FD.pygtex,
  D8EA27E74FBE2E4C5BFBAC4810B36D341A054DAD90DBDF5EE062315F0AF7B5FD.pygtex,
  D8EA27E74FBE2E4C5BFBAC4810B36D341A054DAD90DBDF5EE062315F0AF7B5FD.pygtex,
  25C8A4F6FA5BC8B2A340CF4DCD31EDE71A054DAD90DBDF5EE062315F0AF7B5FD.pygtex,
  25C8A4F6FA5BC8B2A340CF4DCD31EDE71A054DAD90DBDF5EE062315F0AF7B5FD.pygtex,
  25C8A4F6FA5BC8B2A340CF4DCD31EDE71A054DAD90DBDF5EE062315F0AF7B5FD.pygtex,
  25C8A4F6FA5BC8B2A340CF4DCD31EDE71A054DAD90DBDF5EE062315F0AF7B5FD.pygtex}
\gdef \@abspage@last{80}
